%YAML 1.1
%TAG !u! tag:unity3d.com,2011:
--- !u!114 &11400000
MonoBehaviour:
  m_ObjectHideFlags: 0
  m_CorrespondingSourceObject: {fileID: 0}
  m_PrefabInstance: {fileID: 0}
  m_PrefabAsset: {fileID: 0}
  m_GameObject: {fileID: 0}
  m_Enabled: 1
  m_EditorHideFlags: 0
  m_Script: {fileID: 11500000, guid: f1e0dd7f204d3e349b12bf5e95512d85, type: 3}
  m_Name: Splinters
  m_EditorClassIdentifier: 
  Type: 2
  ParticleSystemEffect: {fileID: 7079166990207734865, guid: 2f2746db39970af418b626903691bc00,
    type: 3}
